{
"url": "https://api.github.com/repos/ErikZalm/Marlin/pulls/1",
"id": 282882,
"html_url": "https://github.com/ErikZalm/Marlin/pull/1",
"diff_url": "https://github.com/ErikZalm/Marlin/pull/1.diff",
"patch_url": "https://github.com/ErikZalm/Marlin/pull/1.patch",
"issue_url": "https://api.github.com/repos/ErikZalm/Marlin/issues/1",
"number": 1,
"state": "closed",
"locked": false,
"title": "Move distance shouldn't include E when XYZ are moving.",
"user": {
"login": "jv4779",
"id": 417967,
"avatar_url": "https://avatars.githubusercontent.com/u/417967?v=3",
"gravatar_id": "",
"url": "https://api.github.com/users/jv4779",
"html_url": "https://github.com/jv4779",
"followers_url": "https://api.github.com/users/jv4779/followers",
"following_url": "https://api.github.com/users/jv4779/following{/other_user}",
"gists_url": "https://api.github.com/users/jv4779/gists{/gist_id}",
"starred_url": "https://api.github.com/users/jv4779/starred{/owner}{/repo}",
"subscriptions_url": "https://api.github.com/users/jv4779/subscriptions",
"organizations_url": "https://api.github.com/users/jv4779/orgs",
"repos_url": "https://api.github.com/users/jv4779/repos",
"events_url": "https://api.github.com/users/jv4779/events{/privacy}",
"received_events_url": "https://api.github.com/users/jv4779/received_events",
"type": "User",
"site_admin": false
},
"body": "Distance calculation for moves don't include E axis unless it is the only axis moving.\r\n\r\nClip the max feedrate based on the firmwares max step frequency.  Previously this was clipped in calc_timer which limited the speed indirectly.  This lead to issues with estimate_acceleration_distance and intersection_distance overflowing the long type and making accelerate_until and decelerate_after bogus when large feedrates were used.  The net effect is the firmware steps at the same rate as before, but does it in a sane manner.  The under/overflow of accelerate_until was a major cause for the jerking observed.  When this was negative the acceperation code tried to accelerate for the entire move causing acceleration_timer to hit zero, causing calc_timer to return a 32ms step spacing introducing a full to almost zero step rate change instantly.",
"created_at": "2011-08-22T05:09:57Z",
"updated_at": "2014-09-03T22:53:32Z",
"closed_at": "2012-02-09T18:50:13Z",
"merged_at": null,
"merge_commit_sha": "f0508bfc16b50a8723404efb7d928b18e654c3ec",
"assignee": null,
"milestone": null,
"commits_url": "https://api.github.com/repos/ErikZalm/Marlin/pulls/1/commits",
"review_comments_url": "https://api.github.com/repos/ErikZalm/Marlin/pulls/1/comments",
"review_comment_url": "https://api.github.com/repos/ErikZalm/Marlin/pulls/comments/{number}",
"comments_url": "https://api.github.com/repos/ErikZalm/Marlin/issues/1/comments",
"statuses_url": "https://api.github.com/repos/ErikZalm/Marlin/statuses/51c423bcf52e7bd594b0cd45830d2e33c7a474e4",
"head": {
"label": "jv4779:master",
"ref": "master",
"sha": "51c423bcf52e7bd594b0cd45830d2e33c7a474e4",
"user": {
"login": "jv4779",
"id": 417967,
"avatar_url": "https://avatars.githubusercontent.com/u/417967?v=3",
"gravatar_id": "",
"url": "https://api.github.com/users/jv4779",
"html_url": "https://github.com/jv4779",
"followers_url": "https://api.github.com/users/jv4779/followers",
"following_url": "https://api.github.com/users/jv4779/following{/other_user}",
"gists_url": "https://api.github.com/users/jv4779/gists{/gist_id}",
"starred_url": "https://api.github.com/users/jv4779/starred{/owner}{/repo}",
"subscriptions_url": "https://api.github.com/users/jv4779/subscriptions",
"organizations_url": "https://api.github.com/users/jv4779/orgs",
"repos_url": "https://api.github.com/users/jv4779/repos",
"events_url": "https://api.github.com/users/jv4779/events{/privacy}",
"received_events_url": "https://api.github.com/users/jv4779/received_events",
"type": "User",
"site_admin": false
},
"repo": null
},
"base": {
"label": "ErikZalm:master",
"ref": "master",
"sha": "b5f6482dcec6e78744167b177b61a41b2f0eb4bc",
"user": {
"login": "ErikZalm",
"id": 882374,
"avatar_url": "https://avatars.githubusercontent.com/u/882374?v=3",
"gravatar_id": "",
"url": "https://api.github.com/users/ErikZalm",
"html_url": "https://github.com/ErikZalm",
"followers_url": "https://api.github.com/users/ErikZalm/followers",
"following_url": "https://api.github.com/users/ErikZalm/following{/other_user}",
"gists_url": "https://api.github.com/users/ErikZalm/gists{/gist_id}",
"starred_url": "https://api.github.com/users/ErikZalm/starred{/owner}{/repo}",
"subscriptions_url": "https://api.github.com/users/ErikZalm/subscriptions",
"organizations_url": "https://api.github.com/users/ErikZalm/orgs",
"repos_url": "https://api.github.com/users/ErikZalm/repos",
"events_url": "https://api.github.com/users/ErikZalm/events{/privacy}",
"received_events_url": "https://api.github.com/users/ErikZalm/received_events",
"type": "User",
"site_admin": false
},
"repo": {
"id": 2200856,
"name": "Marlin",
"full_name": "ErikZalm/Marlin",
"owner": {
"login": "ErikZalm",
"id": 882374,
"avatar_url": "https://avatars.githubusercontent.com/u/882374?v=3",
"gravatar_id": "",
"url": "https://api.github.com/users/ErikZalm",
"html_url": "https://github.com/ErikZalm",
"followers_url": "https://api.github.com/users/ErikZalm/followers",
"following_url": "https://api.github.com/users/ErikZalm/following{/other_user}",
"gists_url": "https://api.github.com/users/ErikZalm/gists{/gist_id}",
"starred_url": "https://api.github.com/users/ErikZalm/starred{/owner}{/repo}",
"subscriptions_url": "https://api.github.com/users/ErikZalm/subscriptions",
"organizations_url": "https://api.github.com/users/ErikZalm/orgs",
"repos_url": "https://api.github.com/users/ErikZalm/repos",
"events_url": "https://api.github.com/users/ErikZalm/events{/privacy}",
"received_events_url": "https://api.github.com/users/ErikZalm/received_events",
"type": "User",
"site_admin": false
},
"private": false,
"html_url": "https://github.com/ErikZalm/Marlin",
"description": "Reprap FW with look ahead. SDcard and LCD support. It works on Gen6, Ultimaker, RAMPS and Sanguinololu",
"fork": false,
"url": "https://api.github.com/repos/ErikZalm/Marlin",
"forks_url": "https://api.github.com/repos/ErikZalm/Marlin/forks",
"keys_url": "https://api.github.com/repos/ErikZalm/Marlin/keys{/key_id}",
"collaborators_url": "https://api.github.com/repos/ErikZalm/Marlin/collaborators{/collaborator}",
"teams_url": "https://api.github.com/repos/ErikZalm/Marlin/teams",
"hooks_url": "https://api.github.com/repos/ErikZalm/Marlin/hooks",
"issue_events_url": "https://api.github.com/repos/ErikZalm/Marlin/issues/events{/number}",
"events_url": "https://api.github.com/repos/ErikZalm/Marlin/events",
"assignees_url": "https://api.github.com/repos/ErikZalm/Marlin/assignees{/user}",
"branches_url": "https://api.github.com/repos/ErikZalm/Marlin/branches{/branch}",
"tags_url": "https://api.github.com/repos/ErikZalm/Marlin/tags",
"blobs_url": "https://api.github.com/repos/ErikZalm/Marlin/git/blobs{/sha}",
"git_tags_url": "https://api.github.com/repos/ErikZalm/Marlin/git/tags{/sha}",
"git_refs_url": "https://api.github.com/repos/ErikZalm/Marlin/git/refs{/sha}",
"trees_url": "https://api.github.com/repos/ErikZalm/Marlin/git/trees{/sha}",
"statuses_url": "https://api.github.com/repos/ErikZalm/Marlin/statuses/{sha}",
"languages_url": "https://api.github.com/repos/ErikZalm/Marlin/languages",
"stargazers_url": "https://api.github.com/repos/ErikZalm/Marlin/stargazers",
"contributors_url": "https://api.github.com/repos/ErikZalm/Marlin/contributors",
"subscribers_url": "https://api.github.com/repos/ErikZalm/Marlin/subscribers",
"subscription_url": "https://api.github.com/repos/ErikZalm/Marlin/subscription",
"commits_url": "https://api.github.com/repos/ErikZalm/Marlin/commits{/sha}",
"git_commits_url": "https://api.github.com/repos/ErikZalm/Marlin/git/commits{/sha}",
"comments_url": "https://api.github.com/repos/ErikZalm/Marlin/comments{/number}",
"issue_comment_url": "https://api.github.com/repos/ErikZalm/Marlin/issues/comments/{number}",
"contents_url": "https://api.github.com/repos/ErikZalm/Marlin/contents/{+path}",
"compare_url": "https://api.github.com/repos/ErikZalm/Marlin/compare/{base}...{head}",
"merges_url": "https://api.github.com/repos/ErikZalm/Marlin/merges",
"archive_url": "https://api.github.com/repos/ErikZalm/Marlin/{archive_format}{/ref}",
"downloads_url": "https://api.github.com/repos/ErikZalm/Marlin/downloads",
"issues_url": "https://api.github.com/repos/ErikZalm/Marlin/issues{/number}",
"pulls_url": "https://api.github.com/repos/ErikZalm/Marlin/pulls{/number}",
"milestones_url": "https://api.github.com/repos/ErikZalm/Marlin/milestones{/number}",
"notifications_url": "https://api.github.com/repos/ErikZalm/Marlin/notifications{?since,all,participating}",
"labels_url": "https://api.github.com/repos/ErikZalm/Marlin/labels{/name}",
"releases_url": "https://api.github.com/repos/ErikZalm/Marlin/releases{/id}",
"created_at": "2011-08-13T08:07:20Z",
"updated_at": "2014-11-07T12:53:34Z",
"pushed_at": "2014-11-03T13:14:54Z",
"git_url": "git://github.com/ErikZalm/Marlin.git",
"ssh_url": "git@github.com:ErikZalm/Marlin.git",
"clone_url": "https://github.com/ErikZalm/Marlin.git",
"svn_url": "https://github.com/ErikZalm/Marlin",
"homepage": "",
"size": 21610,
"stargazers_count": 874,
"watchers_count": 874,
"language": "C",
"has_issues": true,
"has_downloads": true,
"has_wiki": true,
"has_pages": false,
"forks_count": 1570,
"mirror_url": null,
"open_issues_count": 332,
"forks": 1570,
"open_issues": 332,
"watchers": 874,
"default_branch": "Marlin_v1"
}
},
"_links": {
"self": {
"href": "https://api.github.com/repos/ErikZalm/Marlin/pulls/1"
},
"html": {
"href": "https://github.com/ErikZalm/Marlin/pull/1"
},
"issue": {
"href": "https://api.github.com/repos/ErikZalm/Marlin/issues/1"
},
"comments": {
"href": "https://api.github.com/repos/ErikZalm/Marlin/issues/1/comments"
},
"review_comments": {
"href": "https://api.github.com/repos/ErikZalm/Marlin/pulls/1/comments"
},
"review_comment": {
"href": "https://api.github.com/repos/ErikZalm/Marlin/pulls/comments/{number}"
},
"commits": {
"href": "https://api.github.com/repos/ErikZalm/Marlin/pulls/1/commits"
},
"statuses": {
"href": "https://api.github.com/repos/ErikZalm/Marlin/statuses/51c423bcf52e7bd594b0cd45830d2e33c7a474e4"
}
},
"merged": false,
"mergeable": true,
"mergeable_state": "clean",
"merged_by": null,
"comments": 4,
"review_comments": 0,
"commits": 2,
"additions": 32,
"deletions": 10,
"changed_files": 1
}