{
  "id": 641907,
  "name": "Tonokip-Firmware",
  "full_name": "tonokip/Tonokip-Firmware",
  "owner": {
    "login": "tonokip",
    "id": 189777,
    "avatar_url": "https://avatars.githubusercontent.com/u/189777?v\u003d3",
    "gravatar_id": "",
    "url": "https://api.github.com/users/tonokip",
    "html_url": "https://github.com/tonokip",
    "followers_url": "https://api.github.com/users/tonokip/followers",
    "following_url": "https://api.github.com/users/tonokip/following{/other_user}",
    "gists_url": "https://api.github.com/users/tonokip/gists{/gist_id}",
    "starred_url": "https://api.github.com/users/tonokip/starred{/owner}{/repo}",
    "subscriptions_url": "https://api.github.com/users/tonokip/subscriptions",
    "organizations_url": "https://api.github.com/users/tonokip/orgs",
    "repos_url": "https://api.github.com/users/tonokip/repos",
    "events_url": "https://api.github.com/users/tonokip/events{/privacy}",
    "received_events_url": "https://api.github.com/users/tonokip/received_events",
    "type": "User",
    "site_admin": false
  },
  "private": false,
  "html_url": "https://github.com/tonokip/Tonokip-Firmware",
  "description": "Tonokip RepRap firmware rewrite based off of Hydra-mmm firmware.",
  "fork": false,
  "url": "https://api.github.com/repos/tonokip/Tonokip-Firmware",
  "forks_url": "https://api.github.com/repos/tonokip/Tonokip-Firmware/forks",
  "keys_url": "https://api.github.com/repos/tonokip/Tonokip-Firmware/keys{/key_id}",
  "collaborators_url": "https://api.github.com/repos/tonokip/Tonokip-Firmware/collaborators{/collaborator}",
  "teams_url": "https://api.github.com/repos/tonokip/Tonokip-Firmware/teams",
  "hooks_url": "https://api.github.com/repos/tonokip/Tonokip-Firmware/hooks",
  "issue_events_url": "https://api.github.com/repos/tonokip/Tonokip-Firmware/issues/events{/number}",
  "events_url": "https://api.github.com/repos/tonokip/Tonokip-Firmware/events",
  "assignees_url": "https://api.github.com/repos/tonokip/Tonokip-Firmware/assignees{/user}",
  "branches_url": "https://api.github.com/repos/tonokip/Tonokip-Firmware/branches{/branch}",
  "tags_url": "https://api.github.com/repos/tonokip/Tonokip-Firmware/tags",
  "blobs_url": "https://api.github.com/repos/tonokip/Tonokip-Firmware/git/blobs{/sha}",
  "git_tags_url": "https://api.github.com/repos/tonokip/Tonokip-Firmware/git/tags{/sha}",
  "git_refs_url": "https://api.github.com/repos/tonokip/Tonokip-Firmware/git/refs{/sha}",
  "trees_url": "https://api.github.com/repos/tonokip/Tonokip-Firmware/git/trees{/sha}",
  "statuses_url": "https://api.github.com/repos/tonokip/Tonokip-Firmware/statuses/{sha}",
  "languages_url": "https://api.github.com/repos/tonokip/Tonokip-Firmware/languages",
  "stargazers_url": "https://api.github.com/repos/tonokip/Tonokip-Firmware/stargazers",
  "contributors_url": "https://api.github.com/repos/tonokip/Tonokip-Firmware/contributors",
  "subscribers_url": "https://api.github.com/repos/tonokip/Tonokip-Firmware/subscribers",
  "subscription_url": "https://api.github.com/repos/tonokip/Tonokip-Firmware/subscription",
  "commits_url": "https://api.github.com/repos/tonokip/Tonokip-Firmware/commits{/sha}",
  "git_commits_url": "https://api.github.com/repos/tonokip/Tonokip-Firmware/git/commits{/sha}",
  "comments_url": "https://api.github.com/repos/tonokip/Tonokip-Firmware/comments{/number}",
  "issue_comment_url": "https://api.github.com/repos/tonokip/Tonokip-Firmware/issues/comments/{number}",
  "contents_url": "https://api.github.com/repos/tonokip/Tonokip-Firmware/contents/{+path}",
  "compare_url": "https://api.github.com/repos/tonokip/Tonokip-Firmware/compare/{base}...{head}",
  "merges_url": "https://api.github.com/repos/tonokip/Tonokip-Firmware/merges",
  "archive_url": "https://api.github.com/repos/tonokip/Tonokip-Firmware/{archive_format}{/ref}",
  "downloads_url": "https://api.github.com/repos/tonokip/Tonokip-Firmware/downloads",
  "issues_url": "https://api.github.com/repos/tonokip/Tonokip-Firmware/issues{/number}",
  "pulls_url": "https://api.github.com/repos/tonokip/Tonokip-Firmware/pulls{/number}",
  "milestones_url": "https://api.github.com/repos/tonokip/Tonokip-Firmware/milestones{/number}",
  "notifications_url": "https://api.github.com/repos/tonokip/Tonokip-Firmware/notifications{?since,all,participating}",
  "labels_url": "https://api.github.com/repos/tonokip/Tonokip-Firmware/labels{/name}",
  "releases_url": "https://api.github.com/repos/tonokip/Tonokip-Firmware/releases{/id}",
  "created_at": "2010-05-01T22:42:53Z",
  "updated_at": "2013-10-26T05:28:02Z",
  "pushed_at": "2010-05-13T02:12:51Z",
  "git_url": "git://github.com/tonokip/Tonokip-Firmware.git",
  "ssh_url": "git@github.com:tonokip/Tonokip-Firmware.git",
  "clone_url": "https://github.com/tonokip/Tonokip-Firmware.git",
  "svn_url": "https://github.com/tonokip/Tonokip-Firmware",
  "homepage": "",
  "size": 96,
  "stargazers_count": 18,
  "watchers_count": 18,
  "language": "Java",
  "has_issues": true,
  "has_downloads": true,
  "has_wiki": true,
  "has_pages": false,
  "forks_count": 19,
  "open_issues_count": 0,
  "forks": 19,
  "open_issues": 0,
  "watchers": 18,
  "default_branch": "master",
  "permissions": {
    "admin": false,
    "push": false,
    "pull": true
  },
  "network_count": 19,
  "subscribers_count": 2
}
