{
  "login": "makerbot",
  "id": 138800,
  "avatar_url": "https://avatars.githubusercontent.com/u/138800?v\u003d2",
  "gravatar_id": "",
  "url": "https://api.github.com/users/makerbot",
  "html_url": "https://github.com/makerbot",
  "followers_url": "https://api.github.com/users/makerbot/followers",
  "following_url": "https://api.github.com/users/makerbot/following{/other_user}",
  "gists_url": "https://api.github.com/users/makerbot/gists{/gist_id}",
  "starred_url": "https://api.github.com/users/makerbot/starred{/owner}{/repo}",
  "subscriptions_url": "https://api.github.com/users/makerbot/subscriptions",
  "organizations_url": "https://api.github.com/users/makerbot/orgs",
  "repos_url": "https://api.github.com/users/makerbot/repos",
  "events_url": "https://api.github.com/users/makerbot/events{/privacy}",
  "received_events_url": "https://api.github.com/users/makerbot/received_events",
  "type": "Organization",
  "site_admin": false,
  "name": "Makerbot Industries",
  "blog": "http://makerbot.com",
  "location": "Brooklyn, NY",
  "bio": "",
  "public_repos": 43,
  "public_gists": 0,
  "followers": 0,
  "following": 0,
  "created_at": "2009-10-12T17:46:34Z",
  "updated_at": "2014-10-23T20:12:28Z"
}
